[gd_scene load_steps=7 format=3 uid="uid://bt3cu1ei2m04k"]

[ext_resource type="Texture2D" uid="uid://bd7d1u3lray0m" path="res://Sprites/moteurA.png" id="1_1ntsa"]
[ext_resource type="Script" path="res://Scripts/Item.gd" id="1_nrwre"]

[sub_resource type="PhysicsMaterial" id="PhysicsMaterial_3rcr5"]
bounce = 0.2

[sub_resource type="RectangleShape2D" id="RectangleShape2D_areyf"]
size = Vector2(32, 32)

[sub_resource type="CapsuleShape2D" id="CapsuleShape2D_y4i2x"]
radius = 24.0
height = 112.0

[sub_resource type="CircleShape2D" id="CircleShape2D_de1n7"]
radius = 24.0

[node name="Item" type="RigidBody2D"]
collision_layer = 7
physics_material_override = SubResource("PhysicsMaterial_3rcr5")
max_contacts_reported = 10
contact_monitor = true
script = ExtResource("1_nrwre")

[node name="Sprite" type="Sprite2D" parent="."]
texture_filter = 1
texture = ExtResource("1_1ntsa")

[node name="CollisionShapeMoteur" type="CollisionShape2D" parent="."]
shape = SubResource("RectangleShape2D_areyf")
disabled = true

[node name="CollisionShapeCaro" type="CollisionShape2D" parent="."]
position = Vector2(0, 8)
rotation = 1.5708
shape = SubResource("CapsuleShape2D_y4i2x")
disabled = true

[node name="CollisionShapeRoue" type="CollisionShape2D" parent="."]
shape = SubResource("CircleShape2D_de1n7")
disabled = true

[connection signal="body_entered" from="." to="." method="_on_body_entered"]
